<?xml version="1.0" standalone="no"?>
<!DOCTYPE svg PUBLIC "-//W3C//DTD SVG 1.1//EN" "http://www.w3.org/Graphics/SVG/1.1/DTD/svg11.dtd" >
<svg xmlns="http://www.w3.org/2000/svg">
<metadata>Generated by IcoMoon</metadata>
<defs>
<font id="icomoon" horiz-adv-x="1024">
<font-face units-per-em="1024" ascent="960" descent="-64" />
<missing-glyph horiz-adv-x="1024" />
<glyph unicode="&#x20;" d="" horiz-adv-x="512" />
<glyph unicode="&#xe600;" d="M512 896c-141.384 0-269.376-57.32-362.032-149.978l-149.968 149.978v-384h384l-143.532 143.522c69.496 69.492 165.492 112.478 271.532 112.478 212.068 0 384-171.924 384-384 0-114.696-50.292-217.636-130.018-288l84.666-96c106.302 93.816 173.352 231.076 173.352 384 0 282.77-229.23 512-512 512z" />
<glyph unicode="&#xe601;" d="M0 384c0-152.924 67.048-290.184 173.35-384l84.666 96c-79.726 70.364-130.016 173.304-130.016 288 0 212.076 171.93 384 384 384 106.042 0 202.038-42.986 271.53-112.478l-143.53-143.522h384v384l-149.97-149.978c-92.654 92.658-220.644 149.978-362.030 149.978-282.77 0-512-229.23-512-512z" />
<glyph unicode="&#xe602;" d="M0 448c0-282.77 229.23-512 512-512 282.772 0 512 229.23 512 512s-229.228 512-512 512c-282.77 0-512-229.23-512-512zM896 448c0-73.236-20.512-141.68-56.088-199.912l-527.822 527.824c58.23 35.578 126.674 56.088 199.91 56.088 212.076 0 384-171.922 384-384zM128 448c0 73.236 20.512 141.678 56.090 199.912l527.822-527.824c-58.234-35.578-126.676-56.088-199.912-56.088-212.076 0-384 171.922-384 384z" />
<glyph unicode="&#xe603;" d="M128 832h768v-768h-768z" />
<glyph unicode="&#xe604;" d="M0 192l256 256 512-512 256 256-512 512 255.998 256h-767.998z" />
<glyph unicode="&#xe605;" d="M512.002 960l-512.002-512h320v-511.998l384-0.002v512h320z" />
<glyph unicode="&#xe606;" d="M256 960l256.002-256-512.002-512 256-256 512 512 256-255.998v767.998z" />
<glyph unicode="&#xe607;" d="M1024 448l-512 512v-320h-511.998l-0.002-384h512v-320z" />
<glyph unicode="&#xe608;" d="M1024 704l-256-256-512 512-256-256 512.002-512-256-256h767.998z" />
<glyph unicode="&#xe609;" d="M512-64l512 512h-320v511.998l-384 0.002v-512h-320z" />
<glyph unicode="&#xe60a;" d="M768-64l-256 256 512 512-256 256-512-512.002-256 256v-767.998z" />
<glyph unicode="&#xe60b;" d="M0 448l512-512v320h511.998l0.002 384h-512v320z" />
</font></defs></svg>